[   
    {
        "name": "📑 Admisiones - Escuela Colombiana de Ingeniería",
        "subtitle": "¿Estás interesado en nuestra institución?",
        "image": "http://www.guiaacademica.com/educacion/sitios/s1065/images/home1.png",
        "opcion1": "📌 Inscríbete a la Escuela Colombiana de Ingeniería",
        "url1": "como entro a la escuela?",
        "opcion2": "❓FAQS❓ (Matrícula, Cancelaciones, Universidad)",
        "url2": "faqs"
    },
    {
        "name": "🔎 Comunidad - Utilidades 📚 ",
        "subtitle": "Funcionalidades para la comunidad:",
        "text": "",
        "image": "https://orientacion.universia.net.co/imgs2011/imagenes/julio-gara-2017_08_30_085526.jpg",
        "opcion1": "📚 Buscar Horario de Asignaturas",
        "url1": "horario",
        "opcion2": "🔌 Reporte a Audiovisuales",
        "url2": "audiovisuales",
        "opcion3": "📞 Directorio Administrativo",
        "url3": "directorio",
        "opcion4": "🛑 Reporte de Emergencia 🚨 [NO ES JUEGO]",
        "url4": "emergencia",
        "opcion5": "🙌🏻 Sugerencias y Comentarios 👏🏻",
        "url5": "sugerencia"
    }
]